-- Merging decision tree log ---
manifest
ADDED from C:\Users\Admin\AndroidStudioProjects\android-recipes\Chapter05_Source\5_04-05_Files\src\main\AndroidManifest.xml:2:1-21:12
INJECTED from C:\Users\Admin\AndroidStudioProjects\android-recipes\Chapter05_Source\5_04-05_Files\src\main\AndroidManifest.xml:2:1-21:12
INJECTED from C:\Users\Admin\AndroidStudioProjects\android-recipes\Chapter05_Source\5_04-05_Files\src\main\AndroidManifest.xml:2:1-21:12
INJECTED from C:\Users\Admin\AndroidStudioProjects\android-recipes\Chapter05_Source\5_04-05_Files\src\main\AndroidManifest.xml:2:1-21:12
INJECTED from C:\Users\Admin\AndroidStudioProjects\android-recipes\Chapter05_Source\5_04-05_Files\src\main\AndroidManifest.xml:2:1-21:12
INJECTED from C:\Users\Admin\AndroidStudioProjects\android-recipes\Chapter05_Source\5_04-05_Files\src\main\AndroidManifest.xml:2:1-21:12
INJECTED from C:\Users\Admin\AndroidStudioProjects\android-recipes\Chapter05_Source\5_04-05_Files\src\main\AndroidManifest.xml:2:1-21:12
	package
		ADDED from C:\Users\Admin\AndroidStudioProjects\android-recipes\Chapter05_Source\5_04-05_Files\src\main\AndroidManifest.xml:3:11-45
		INJECTED from C:\Users\Admin\AndroidStudioProjects\android-recipes\Chapter05_Source\5_04-05_Files\src\main\AndroidManifest.xml
		INJECTED from C:\Users\Admin\AndroidStudioProjects\android-recipes\Chapter05_Source\5_04-05_Files\src\main\AndroidManifest.xml
	android:versionName
		ADDED from C:\Users\Admin\AndroidStudioProjects\android-recipes\Chapter05_Source\5_04-05_Files\src\main\AndroidManifest.xml:5:11-36
		INJECTED from C:\Users\Admin\AndroidStudioProjects\android-recipes\Chapter05_Source\5_04-05_Files\src\main\AndroidManifest.xml
		INJECTED from C:\Users\Admin\AndroidStudioProjects\android-recipes\Chapter05_Source\5_04-05_Files\src\main\AndroidManifest.xml
	xmlns:android
		ADDED from C:\Users\Admin\AndroidStudioProjects\android-recipes\Chapter05_Source\5_04-05_Files\src\main\AndroidManifest.xml:2:11-69
	android:versionCode
		ADDED from C:\Users\Admin\AndroidStudioProjects\android-recipes\Chapter05_Source\5_04-05_Files\src\main\AndroidManifest.xml:4:11-34
		INJECTED from C:\Users\Admin\AndroidStudioProjects\android-recipes\Chapter05_Source\5_04-05_Files\src\main\AndroidManifest.xml
		INJECTED from C:\Users\Admin\AndroidStudioProjects\android-recipes\Chapter05_Source\5_04-05_Files\src\main\AndroidManifest.xml
application
ADDED from C:\Users\Admin\AndroidStudioProjects\android-recipes\Chapter05_Source\5_04-05_Files\src\main\AndroidManifest.xml:7:5-19:19
	android:label
		ADDED from C:\Users\Admin\AndroidStudioProjects\android-recipes\Chapter05_Source\5_04-05_Files\src\main\AndroidManifest.xml:9:9-41
	android:icon
		ADDED from C:\Users\Admin\AndroidStudioProjects\android-recipes\Chapter05_Source\5_04-05_Files\src\main\AndroidManifest.xml:8:9-38
activity#com.androidrecipes.files.AssetActivity
ADDED from C:\Users\Admin\AndroidStudioProjects\android-recipes\Chapter05_Source\5_04-05_Files\src\main\AndroidManifest.xml:10:9-17:20
	android:label
		ADDED from C:\Users\Admin\AndroidStudioProjects\android-recipes\Chapter05_Source\5_04-05_Files\src\main\AndroidManifest.xml:12:13-45
	android:name
		ADDED from C:\Users\Admin\AndroidStudioProjects\android-recipes\Chapter05_Source\5_04-05_Files\src\main\AndroidManifest.xml:11:13-41
intent-filter#action:name:android.intent.action.MAIN+category:name:android.intent.category.LAUNCHER
ADDED from C:\Users\Admin\AndroidStudioProjects\android-recipes\Chapter05_Source\5_04-05_Files\src\main\AndroidManifest.xml:13:13-16:29
action#android.intent.action.MAIN
ADDED from C:\Users\Admin\AndroidStudioProjects\android-recipes\Chapter05_Source\5_04-05_Files\src\main\AndroidManifest.xml:14:17-68
	android:name
		ADDED from C:\Users\Admin\AndroidStudioProjects\android-recipes\Chapter05_Source\5_04-05_Files\src\main\AndroidManifest.xml:14:25-66
category#android.intent.category.LAUNCHER
ADDED from C:\Users\Admin\AndroidStudioProjects\android-recipes\Chapter05_Source\5_04-05_Files\src\main\AndroidManifest.xml:15:17-76
	android:name
		ADDED from C:\Users\Admin\AndroidStudioProjects\android-recipes\Chapter05_Source\5_04-05_Files\src\main\AndroidManifest.xml:15:27-74
uses-permission#android.permission.WRITE_EXTERNAL_STORAGE
ADDED from C:\Users\Admin\AndroidStudioProjects\android-recipes\Chapter05_Source\5_04-05_Files\src\main\AndroidManifest.xml:20:5-80
	android:name
		ADDED from C:\Users\Admin\AndroidStudioProjects\android-recipes\Chapter05_Source\5_04-05_Files\src\main\AndroidManifest.xml:20:22-78
uses-sdk
INJECTED from C:\Users\Admin\AndroidStudioProjects\android-recipes\Chapter05_Source\5_04-05_Files\src\main\AndroidManifest.xml reason: use-sdk injection requested
INJECTED from C:\Users\Admin\AndroidStudioProjects\android-recipes\Chapter05_Source\5_04-05_Files\src\main\AndroidManifest.xml
INJECTED from C:\Users\Admin\AndroidStudioProjects\android-recipes\Chapter05_Source\5_04-05_Files\src\main\AndroidManifest.xml
INJECTED from C:\Users\Admin\AndroidStudioProjects\android-recipes\Chapter05_Source\5_04-05_Files\src\main\AndroidManifest.xml
INJECTED from C:\Users\Admin\AndroidStudioProjects\android-recipes\Chapter05_Source\5_04-05_Files\src\main\AndroidManifest.xml
	android:targetSdkVersion
		INJECTED from C:\Users\Admin\AndroidStudioProjects\android-recipes\Chapter05_Source\5_04-05_Files\src\main\AndroidManifest.xml
		ADDED from C:\Users\Admin\AndroidStudioProjects\android-recipes\Chapter05_Source\5_04-05_Files\src\main\AndroidManifest.xml
		INJECTED from C:\Users\Admin\AndroidStudioProjects\android-recipes\Chapter05_Source\5_04-05_Files\src\main\AndroidManifest.xml
	android:minSdkVersion
		INJECTED from C:\Users\Admin\AndroidStudioProjects\android-recipes\Chapter05_Source\5_04-05_Files\src\main\AndroidManifest.xml
		ADDED from C:\Users\Admin\AndroidStudioProjects\android-recipes\Chapter05_Source\5_04-05_Files\src\main\AndroidManifest.xml
		INJECTED from C:\Users\Admin\AndroidStudioProjects\android-recipes\Chapter05_Source\5_04-05_Files\src\main\AndroidManifest.xml
